<svg width="22.164062" height="35.000000" viewBox="0 0 22.1641 35" fill="none" xmlns="http://www.w3.org/2000/svg" xmlns:xlink="http://www.w3.org/1999/xlink">
	<desc>
			Created with Pixso.
	</desc>
	<defs/>
	<path id="Vector" d="M21.25 23.23L13.8 17.5L21.25 11.76C21.82 11.32 22.16 10.63 22.16 9.91C22.16 9.18 21.82 8.5 21.24 8.06L11.33 0.47C11.3 0.45 11.27 0.44 11.24 0.42C10.85 0.14 10.39 0 9.91 0C8.6 0.04 7.57 1.12 7.58 2.43L7.58 12.64L3.32 9.04C3.07 8.84 2.76 8.75 2.44 8.79C2.13 8.82 1.85 8.98 1.66 9.23L0.24 11.08C-0.15 11.58 -0.07 12.29 0.42 12.69L6.19 17.5L0.43 22.29C-0.06 22.69 -0.15 23.41 0.24 23.91L1.66 25.76C1.85 26.01 2.14 26.17 2.45 26.21C2.77 26.24 3.08 26.15 3.33 25.95L7.58 22.35L7.58 32.56C7.57 33.87 8.6 34.95 9.91 35C10.39 35 10.85 34.85 11.24 34.57C11.27 34.55 11.3 34.54 11.33 34.52L21.24 26.93C21.82 26.49 22.16 25.81 22.16 25.08C22.16 24.36 21.83 23.67 21.25 23.23ZM20.54 26L10.69 33.53C10.66 33.55 10.64 33.57 10.61 33.58C10.41 33.74 10.16 33.83 9.91 33.83C9.25 33.77 8.74 33.22 8.74 32.56L8.74 21.09C8.74 20.87 8.61 20.66 8.41 20.56C8.2 20.47 7.96 20.5 7.78 20.65L2.58 25.05L1.17 23.19L7.47 17.94C7.6 17.83 7.68 17.67 7.68 17.5C7.68 17.32 7.6 17.16 7.47 17.05L1.16 11.79L2.57 9.94L7.78 14.34C7.96 14.49 8.2 14.52 8.41 14.43C8.61 14.33 8.74 14.12 8.74 13.9L8.74 2.43C8.74 1.77 9.25 1.22 9.91 1.16C10.16 1.16 10.41 1.25 10.61 1.41C10.64 1.42 10.66 1.44 10.69 1.45L20.54 8.99C20.82 9.2 20.99 9.55 20.99 9.91C20.99 10.27 20.83 10.62 20.54 10.84L12.48 17.03C12.34 17.14 12.25 17.31 12.25 17.5C12.25 17.68 12.34 17.85 12.48 17.96L20.54 24.15C20.83 24.37 20.99 24.72 20.99 25.08C20.99 25.44 20.82 25.79 20.54 26Z" fill="#FF4948" fill-opacity="1.000000" fill-rule="nonzero"/>
	<path id="Vector" d="M11.66 14.57C11.98 14.57 12.24 14.31 12.24 13.99L12.24 7.05L15.99 9.92L13.64 11.73C13.38 11.93 13.34 12.29 13.53 12.54C13.73 12.8 14.09 12.85 14.35 12.65L17.31 10.38C17.45 10.27 17.53 10.1 17.53 9.91C17.53 9.73 17.45 9.56 17.31 9.45L12.01 5.41C11.84 5.27 11.6 5.25 11.4 5.35C11.2 5.45 11.08 5.65 11.08 5.87L11.08 13.99C11.08 14.31 11.34 14.57 11.66 14.57Z" fill="#FF4948" fill-opacity="1.000000" fill-rule="nonzero"/>
	<path id="Vector" d="M17.31 24.61L14.35 22.34C14.09 22.14 13.73 22.19 13.53 22.45C13.34 22.7 13.38 23.06 13.64 23.26L15.99 25.07L12.24 27.94L12.24 21C12.24 20.68 11.98 20.42 11.66 20.42C11.34 20.42 11.08 20.68 11.08 21L11.08 29.12C11.08 29.34 11.2 29.54 11.4 29.64C11.6 29.74 11.84 29.72 12.01 29.58L17.31 25.54C17.45 25.43 17.53 25.26 17.53 25.08C17.53 24.89 17.45 24.72 17.31 24.61Z" fill="#FF4948" fill-opacity="1.000000" fill-rule="nonzero"/>
</svg>
