<svg width="18.000000" height="20.000000" viewBox="0 0 18 20" fill="none" xmlns="http://www.w3.org/2000/svg" xmlns:xlink="http://www.w3.org/1999/xlink">
	<desc>
			Created with Pixso.
	</desc>
	<defs/>
	<path id="Vector" d="M17 19L17 17C17 15.93 16.57 14.92 15.82 14.17C15.07 13.42 14.06 13 13 13L5 13C3.93 13 2.92 13.42 2.17 14.17C1.42 14.92 1 15.93 1 17L1 19" stroke="#FF4948" stroke-opacity="1.000000" stroke-width="2.000000" stroke-linejoin="round" stroke-linecap="round"/>
	<path id="Vector" d="M9 9C6.79 9 5 7.2 5 5C5 2.79 6.79 1 9 1C11.2 1 13 2.79 13 5C13 7.2 11.2 9 9 9Z" stroke="#FF4948" stroke-opacity="1.000000" stroke-width="2.000000" stroke-linejoin="round"/>
</svg>
